{
    "name":"bluCore",
    "version":"1.0.0",
    "author":"Andrew Davis",
    "location":"",
    "directory":"",
    "createPackageDirectory":true,
    "packageDirectory":"bluCore",
    "homepage":"http://www.bluewatersolutions.com",
    "documentation":"",
    "repository":{
        "type":"",
        "URL":""
    },
    "bugs":"",
    "slug":"bluCore",
    "shortDescription":"",
    "description":"",
    "instructions":"",
    "changelog":"",
    "type":"contentbox-modules",
    "keywords":"blucore",
    "private":true,
    "engines":[
        {
            "type":"",
            "version":""
        }
    ],
    "defaultEngine":"",
    "defaultPort":0,
    "projectURL":"",
    "license":[
        {
            "type":"",
            "URL":""
        }
    ],
    "contributors":[
        
    ],
    "dependencies":{
        "cbxmigrations":"*"
        
    },
    "devDependencies":{
        
    },
    "installPaths":{
        "cbxmigrations": "../cbxmigrations"
        
    },
    "scripts":{
        
    },
    "ignore":[
        "**/.*",
        "test",
        "tests"
    ],
    "testbox":{
        "runner":[
            {
                "default":""
            }
        ],
        "labels":[
            
        ],
        "reporter":"",
        "reporterResults":"",
        "bundles":[
            ""
        ],
        "directory":{
            "mapping":"",
            "recurse":true
        },
        "watchers":[
            
        ],
        "notify":{
            "emails":[
                
            ],
            "growl":"",
            "URL":""
        }
    }
}